<?xml version="1.0" encoding="UTF-8" standalone="no"?>
<!-- Created with Inkscape (http://www.inkscape.org/) -->

<svg
   xmlns:dc="http://purl.org/dc/elements/1.1/"
   xmlns:cc="http://creativecommons.org/ns#"
   xmlns:rdf="http://www.w3.org/1999/02/22-rdf-syntax-ns#"
   xmlns:svg="http://www.w3.org/2000/svg"
   xmlns="http://www.w3.org/2000/svg"
   xmlns:sodipodi="http://sodipodi.sourceforge.net/DTD/sodipodi-0.dtd"
   xmlns:inkscape="http://www.inkscape.org/namespaces/inkscape"
   id="svg4136"
   version="1.1"
   inkscape:version="0.91 r13725"
   xml:space="preserve"
   width="95"
   height="71.25"
   viewBox="0 0 95 71.25"
   sodipodi:docname="Orders.svg"><metadata
     id="metadata4142"><rdf:RDF><cc:Work
         rdf:about=""><dc:format>image/svg+xml</dc:format><dc:type
           rdf:resource="http://purl.org/dc/dcmitype/StillImage" /><dc:title></dc:title></cc:Work></rdf:RDF></metadata><defs
     id="defs4140"><clipPath
       clipPathUnits="userSpaceOnUse"
       id="clipPath4150"><path
         d="M 0,792 612,792 612,0 0,0 0,792 Z"
         id="path4152"
         inkscape:connector-curvature="0" /></clipPath></defs><sodipodi:namedview
     pagecolor="#ffffff"
     bordercolor="#666666"
     borderopacity="1"
     objecttolerance="10"
     gridtolerance="10"
     guidetolerance="10"
     inkscape:pageopacity="0"
     inkscape:pageshadow="2"
     inkscape:window-width="1368"
     inkscape:window-height="849"
     id="namedview4138"
     showgrid="false"
     inkscape:zoom="0.65656566"
     inkscape:cx="71.25"
     inkscape:cy="-175"
     inkscape:window-x="-8"
     inkscape:window-y="-8"
     inkscape:window-maximized="1"
     inkscape:current-layer="g4144"
     fit-margin-top="0"
     fit-margin-left="0"
     fit-margin-right="0"
     fit-margin-bottom="0" /><g
     id="g4144"
     inkscape:groupmode="layer"
     inkscape:label="Orders"
     transform="matrix(1.25,0,0,-1.25,-311.25,741.25)"><g
       id="g4146"><g
         id="g4148"
         clip-path="url(#clipPath4150)"><g
           id="g4154"
           transform="translate(255,587)"><path
             d="M 0,0 0,-49.02 C 0,-49.561 0.439,-50 0.98,-50 l 1.142,0 c 0.476,0 0.864,0.347 0.961,0.813 C 3.458,-47.368 5.069,-46 7,-46 c 1.931,0 3.542,-1.368 3.917,-3.187 0.097,-0.466 0.485,-0.813 0.961,-0.813 l 0.244,0 c 0.476,0 0.864,0.347 0.961,0.813 0.375,1.819 1.986,3.187 3.917,3.187 1.931,0 3.542,-1.368 3.917,-3.187 0.097,-0.466 0.485,-0.813 0.961,-0.813 l 0.244,0 c 0.476,0 0.864,0.347 0.961,0.813 0.375,1.819 1.986,3.187 3.917,3.187 1.931,0 3.542,-1.368 3.917,-3.187 0.097,-0.466 0.485,-0.813 0.961,-0.813 l 0.244,0 c 0.476,0 0.864,0.347 0.961,0.813 0.375,1.819 1.986,3.187 3.917,3.187 1.931,0 3.542,-1.368 3.917,-3.187 0.097,-0.466 0.485,-0.813 0.961,-0.813 l 0.244,0 c 0.476,0 0.864,0.347 0.961,0.813 0.375,1.819 1.986,3.187 3.917,3.187 1.931,0 3.542,-1.368 3.917,-3.187 0.097,-0.466 0.485,-0.813 0.961,-0.813 l 0.244,0 c 0.476,0 0.864,0.347 0.961,0.813 0.375,1.819 1.986,3.187 3.917,3.187 1.931,0 3.542,-1.368 3.917,-3.187 0.097,-0.466 0.485,-0.813 0.961,-0.813 l 1.142,0 c 0.541,0 0.98,0.439 0.98,0.98 L 64,0 c 0,0.541 -0.439,0.98 -0.98,0.98 l -62.04,0 C 0.439,0.98 0,0.541 0,0 Z"
             style="fill:none;stroke:#4c5768;stroke-width:2;stroke-linecap:butt;stroke-linejoin:miter;stroke-miterlimit:10;stroke-dasharray:none;stroke-opacity:1"
             id="path4156"
             inkscape:connector-curvature="0" /></g><g
           id="g4158"
           transform="translate(276,563.5)"><path
             d="m 0,0 6.5,-6.5 18,18"
             style="fill:none;stroke:#885ba4;stroke-width:2;stroke-linecap:round;stroke-linejoin:round;stroke-miterlimit:10;stroke-dasharray:none;stroke-opacity:1"
             id="path4160"
             inkscape:connector-curvature="0" /></g><g
           id="g4162"
           transform="translate(255,582)"><path
             d="m 0,0 0,0 c -2.761,0 -5,2.239 -5,5 0,2.761 2.239,5 5,5 l 64,0 c 2.761,0 5,-2.239 5,-5 0,-2.761 -2.239,-5 -5,-5"
             style="fill:none;stroke:#4c5768;stroke-width:2;stroke-linecap:butt;stroke-linejoin:miter;stroke-miterlimit:10;stroke-dasharray:none;stroke-opacity:1"
             id="path4164"
             inkscape:connector-curvature="0" /></g></g></g></g></svg>